{
    "type": "FeatureCollection",
    "name": "Hoja1",
    "crs": { "type": "name", "properties": { "name": "urn:ogc:def:crs:OGC:1.3:CRS84" } },
    "features": [
    { "type": "Feature", "properties": { "coordenadas": [ -34.482374, -58.730327 ], "Escuela": "Colegio Sta Soledad Torres Acosta", "Mesas": "5", "Barrio": "Grand Bourg", "Field5": "Santiago Dondo", "FiscGral": "María Bosch", "Direccion": "EL CALLAO 1981", "Field12": "Full espert", "Field13": "Full espert" }, "geometry": null },
    { "type": "Feature", "properties": { "coordenadas": [ -34.489716, -58.726299 ], "Escuela": "Colegio Nuestra Sra. De Lourdes", "Mesas": "9", "Barrio": "Grand Bourg", "Field5": "Santiago Dondo", "FiscGral": "Patricio Perez Bertana", "Direccion": "PASO DE USPALLATA 1249", "Field12": "Full espert", "Field13": "Full espert", "Field15": "297" }, "geometry": null },
    { "type": "Feature", "properties": { "coordenadas": [ -34.499037, -58.732982 ], "Escuela": "Colegio Santa Fe", "Mesas": "4", "Barrio": "Grand Bourg", "Field5": "Santiago Dondo", "FiscGral": "Gustavo Di Luzio", "Direccion": "MASCARDI 851", "Field12": "Full espert", "Field13": "Full espert" }, "geometry": null },
    { "type": "Feature", "properties": { "coordenadas": [ -34.482414, -58.725208 ], "Escuela": "Escuela Domingo. Sarmiento", "Mesas": "10", "Barrio": "Grand Bourg", "Field5": "Santiago Dondo", "FiscGral": "Luis Camps", "Direccion": "YATASTO 1735", "Field12": "full, 6 podes cambiemos", "Field13": "full, 6 podes cambiemos", "Field14": "ok" }, "geometry": null },
    { "type": "Feature", "properties": { "coordenadas": [ -34.522677, -58.756883 ], "Escuela": "Escuela Especial 501", "Mesas": "7", "Barrio": "Grand Bourg", "Field5": "Santiago Dondo", "FiscGral": "Pablo Tarantini", "Direccion": "jose c paz", "Field12": "full, 4 poderes cambiemos", "Field13": "full, 4 poderes cambiemos" }, "geometry": null },
    { "type": "Feature", "properties": { "coordenadas": [ -34.490272, -58.725884 ], "Escuela": "EP14", "Mesas": "12", "Barrio": "Grand Bourg", "Field5": "Santiago Dondo", "FiscGral": "Teo Quesada", "Direccion": "PASO DE USPALLATA 1197", "Field12": "full, 4 poderes cambiemos", "Field13": "full, 4 poderes cambiemos" }, "geometry": null },
    { "type": "Feature", "properties": { "coordenadas": [ -34.488852, -58.736261 ], "Escuela": "EP20", "Mesas": "10", "Barrio": "Grand Bourg", "Field5": "Santiago Dondo", "FiscGral": "Alejandro Dodds", "Field7": "Caro 1", "Direccion": "LUIS VERNET 782", "Field12": "Doble en 5 mesas", "Field13": "Doble en 5 mesas" }, "geometry": null },
    { "type": "Feature", "properties": { "coordenadas": [ -34.469041, -58.723902 ], "Escuela": "EP24", "Mesas": "12", "Barrio": "Grand Bourg", "Field5": "Santiago Dondo", "FiscGral": "Ignacio Zorraquín", "Field7": "Caro 1", "Direccion": "DESCARTES N°2797", "Field12": "Doble", "Field13": "Doble" }, "geometry": null },
    { "type": "Feature", "properties": { "coordenadas": [ -34.498338, -58.732013 ], "Escuela": "EP26", "Mesas": "12", "Barrio": "Grand Bourg", "Field5": "Santiago Dondo", "FiscGral": "Vicky Premrou", "Direccion": "MASCARDI 866", "Field12": "full, 6 podes cambiemos", "Field13": "full, 6 podes cambiemos" }, "geometry": null },
    { "type": "Feature", "properties": { "coordenadas": [ -34.494175, -58.743824 ], "Escuela": "EP27", "Mesas": "7", "Barrio": "Grand Bourg", "Field5": "Santiago Dondo", "FiscGral": "Norma Ramiro", "Direccion": "AGRELO 29", "Field11": "Colegio José Ingenieros", "Field12": "Full espert", "Field13": "Full espert" }, "geometry": null },
    { "type": "Feature", "properties": { "coordenadas": [ -34.497029, -58.722269 ], "Escuela": "EP37", "Mesas": "13", "Barrio": "Grand Bourg", "Field5": "Santiago Dondo", "FiscGral": "Pablo Guillón", "Direccion": "CBTE.DE SAN LORENZO Y CANGALLO S\/N", "Field11": "Jardín de Infantes 905", "Field12": "Full espert", "Field13": "Full espert" }, "geometry": null },
    { "type": "Feature", "properties": { "coordenadas": [ -34.485466, -58.730039 ], "Escuela": "EP38", "Mesas": "7", "Barrio": "Grand Bourg", "Field5": "Santiago Dondo", "FiscGral": "Francisco Martignone", "Direccion": "LUIS VERNET 1275", "Field12": "full, 3 poderes cambiemos", "Field13": "full, 3 poderes cambiemos", "Field14": "ok" }, "geometry": null },
    { "type": "Feature", "properties": { "coordenadas": [ -34.468665, -58.712522 ], "Escuela": "EP39", "Mesas": "9", "Barrio": "Grand Bourg", "Field5": "Santiago Dondo", "FiscGral": "Tomás Fiorito", "Direccion": "BOYLE 2400", "Field12": "doble", "Field13": "doble" }, "geometry": null },
    { "type": "Feature", "properties": { "coordenadas": [ -34.478412, -58.721268 ], "Escuela": "Ep6", "Mesas": "11", "Barrio": "Grand Bourg", "Field5": "Santiago Dondo", "FiscGral": "Santiago Mihura", "Field7": "Caro 1", "Direccion": "PALPA 2015", "Field12": "doble", "Field13": "doble" }, "geometry": null },
    { "type": "Feature", "properties": { "coordenadas": [ -34.469516, -58.713385 ], "Escuela": "ES13", "Mesas": "6", "Barrio": "Grand Bourg", "Field5": "Santiago Dondo", "FiscGral": "Ignacio De la Riva", "Direccion": "LUIS PIEDRABUENA N°3400", "Field12": "Full espert", "Field13": "Full espert" }, "geometry": null },
    { "type": "Feature", "properties": { "coordenadas": [ -34.495245, -58.723649 ], "Escuela": "ES2", "Mesas": "14", "Barrio": "Grand Bourg", "Field5": "Caro", "FiscGral": "Marisol Carafi", "Field7": "Caro 1", "Direccion": "SAN LORENZO 790", "Field12": "caro 7, 7 martin", "Field13": "caro 7, 7 martin" }, "geometry": null },
    { "type": "Feature", "properties": { "coordenadas": [ -34.500767, -58.721073 ], "Escuela": "EST1", "Mesas": "8", "Barrio": "Grand Bourg", "Field5": "Martin De la Arena", "FiscGral": "Jeronimo Garcia Lanza", "Direccion": "BATALLA DE CHACABUCO N°276", "Field12": "full, 4 poderes cambiemos", "Field13": "full, 4 poderes cambiemos", "Field14": "ok" }, "geometry": null },
    { "type": "Feature", "properties": { "coordenadas": [ -34.488682, -58.732279 ], "Escuela": "Escuela Incorporada Mariano Moreno", "Mesas": "10", "Barrio": "Grand Bourg", "Field5": "Martin De la Arena", "FiscGral": "Vero Roca", "Direccion": "BATALLA DE MAIPU 1467", "Field12": "full espert", "Field13": "full espert" }, "geometry": null },
    { "type": "Feature", "properties": { "coordenadas": [ -34.490834, -58.723423 ], "Escuela": "Instituto Alfonsina Storni", "Mesas": "11", "Barrio": "Grand Bourg", "Field5": "Santiago Dondo", "FiscGral": "Luis Fernando Herrera", "Direccion": "EL CALLAO 1071", "Field12": "Full espert", "Field13": "Full espert" }, "geometry": null },
    { "type": "Feature", "properties": { "coordenadas": [ -34.486668, -58.727520 ], "Escuela": "Instituto Evangelico Argentino", "Mesas": "12", "Barrio": "Grand Bourg", "Field5": "Santiago Dondo", "FiscGral": "Enrique Fernández Saénz", "Field7": "Caro 1", "Direccion": "EL PLUMERILLO 1492", "Field12": "doble en 6 mesas", "Field13": "doble en 6 mesas" }, "geometry": null },
    { "type": "Feature", "properties": { "coordenadas": [ -34.501224, -58.726167 ], "Escuela": "Instituto Martin M de Guemes", "Mesas": "7", "Barrio": "Grand Bourg", "Field5": "Braun", "FiscGral": "Hernando Campos", "Direccion": "PASO DE LOS PATOS 444", "Field12": "Full espert", "Field13": "Full espert" }, "geometry": null },
    { "type": "Feature", "properties": { "coordenadas": [ -34.489058, -58.715174 ], "Escuela": "Jardin de Infantes 917", "Mesas": "7", "Barrio": "Grand Bourg", "Field5": "Martin De la Arena", "FiscGral": "Bernardita Bedoya", "Direccion": "MIRAFLORES 940", "Field12": "Full espert", "Field13": "Full espert" }, "geometry": null },
    { "type": "Feature", "properties": { "coordenadas": [ -34.499271, -58.651114 ], "Escuela": "Centro de Formac. Prof 404", "Mesas": "2", "Barrio": "Sourdeaux", "Field5": "Martin De la Arena", "FiscGral": "Lola Silva", "Direccion": "GUIRALDES 5595", "Field12": "full espert", "Field13": "full espert" }, "geometry": null },
    { "type": "Feature", "properties": { "coordenadas": [ -34.499606, -58.654916 ], "Escuela": "EP 10", "Mesas": "9", "Barrio": "Sourdeaux", "Field5": "Martin De la Arena", "FiscGral": "Elisa Cayol", "Direccion": "PEDRO MONTI N°785", "Field12": "full espert", "Field13": "full espert" }, "geometry": null },
    { "type": "Feature", "properties": { "coordenadas": [ -34.502784, -58.668951 ], "Escuela": "EP 15", "Mesas": "13", "Barrio": "Sourdeaux", "Field5": "Martin De la Arena", "FiscGral": "Oscar López Serrot", "Direccion": "ROSARIO 4490", "Field12": "Doble en 8 mesas", "Field13": "Doble en 8 mesas" }, "geometry": null },
    { "type": "Feature", "properties": { "coordenadas": [ -34.508750, -58.662538 ], "Escuela": "EP 36", "Mesas": "9", "Barrio": "Sourdeaux", "Field5": "Martin De la Arena", "FiscGral": "Chino Oets", "Direccion": "LLERENA 4444", "Field12": "doble caro y martin", "Field13": "doble caro y martin" }, "geometry": null },
    { "type": "Feature", "properties": { "coordenadas": [ -34.492446, -58.657841 ], "Escuela": "Instituto Arnold Gesell", "Mesas": "8", "Barrio": "Sourdeaux", "Field5": "Martin De la Arena", "FiscGral": "Alcides Vasquez", "Direccion": "SANABRIA 6056\/76\/86", "Field12": "full espert", "Field13": "full espert" }, "geometry": null },
    { "type": "Feature", "properties": { "coordenadas": [ -34.501533, -58.648550 ], "Escuela": "Instituto Alvarez Condarco", "Mesas": "6", "Barrio": "Sourdeaux", "Field5": "Martin De la Arena", "FiscGral": "Jorge Enríquez", "Direccion": "GUIRALDES 35", "Field12": "Full espert", "Field13": "Full espert" }, "geometry": null },
    { "type": "Feature", "properties": { "coordenadas": [ -34.499871, -58.668254 ], "Escuela": "Instituto San Roman", "Mesas": "10", "Barrio": "Sourdeaux", "Field5": "San Jorge", "FiscGral": "Matias Eickert", "Field7": "Caro 1", "Direccion": "LUIS ESPINOSA 1675", "Field12": "caro 6, martin 4", "Field13": "caro 6, martin 4" }, "geometry": null },
    { "type": "Feature", "properties": { "coordenadas": [ -34.499109, -58.661630 ], "Escuela": "Jardin de Infantes 901", "Mesas": "3", "Barrio": "Sourdeaux", "Field5": "Martin De la Arena", "FiscGral": "Jorge wilder", "Direccion": "PELAGIO LUNA\/Gregorio Marañon", "Field12": "Full espert", "Field13": "Full espert" }, "geometry": null },
    { "type": "Feature", "properties": { "coordenadas": [ -34.474778, -58.693520 ], "Escuela": "Colegio Jesus Maria", "Mesas": "6", "Barrio": "Pablo Nogues", "Field5": "Martin De la Arena", "FiscGral": "Momo de la Arena", "Field7": "Caro 1", "Direccion": "MAURE 4612", "Field12": "doble caro y martin", "Field13": "doble caro y martin" }, "geometry": null },
    { "type": "Feature", "properties": { "coordenadas": [ -34.471446, -58.683611 ], "Escuela": "Escuela Argentina Modelo", "Mesas": "10", "Barrio": "Pablo Nogues", "Field5": "Martin De la Arena", "FiscGral": "Juan Gallo", "Field7": "M 1", "Direccion": "SOLER 5388", "Field12": "doble en 5 mesas", "Field13": "doble en 5 mesas" }, "geometry": null },
    { "type": "Feature", "properties": { "coordenadas": [ -34.494090, -58.708954 ], "Escuela": "Escuela Cornelio Saavedra", "Mesas": "8", "Barrio": "Pablo Nogues", "Field5": "Martin De la Arena", "FiscGral": "Cecilia Davalos", "Direccion": "VALPARAISO 209", "Field12": "full espert", "Field13": "full espert" }, "geometry": null },
    { "type": "Feature", "properties": { "coordenadas": [ -34.481967, -58.702693 ], "Escuela": "EP25", "Mesas": "10", "Barrio": "Pablo Nogues", "Field5": "Martin De la Arena", "FiscGral": "Silvina Gorrisen", "Field7": "M 1", "Direccion": "MARIOTTE 717", "Field12": "doble 5 mesas", "Field13": "doble 5 mesas" }, "geometry": null },
    { "type": "Feature", "properties": { "coordenadas": [ -34.484836, -58.715034 ], "Escuela": "EP29", "Mesas": "14", "Barrio": "Pablo Nogues", "Field5": "Martin De la Arena", "FiscGral": "Nico Silvester", "Field7": "Caro 1", "Direccion": "VALPARAISO 1155", "Field12": "doble 10 mesas", "Field13": "doble 10 mesas" }, "geometry": null },
    { "type": "Feature", "properties": { "coordenadas": [ -34.477579, -58.695422 ], "Escuela": "EP32", "Mesas": "10", "Barrio": "Pablo Nogues", "Field5": "Martin De la Arena", "FiscGral": "Ramiro López Serrot", "Direccion": "FRANKLIN BENJAMIN 800", "Field12": "full espert", "Field13": "full espert" }, "geometry": null },
    { "type": "Feature", "properties": { "coordenadas": [ -34.488012, -58.701720 ], "Escuela": "EP7", "Mesas": "12", "Barrio": "Pablo Nogues", "Field5": "Martin De la Arena", "FiscGral": "Gastón Fernández ", "Direccion": "Ing Pablo Nogués 3061", "Field12": "full espert", "Field13": "full espert" }, "geometry": null },
    { "type": "Feature", "properties": { "coordenadas": [ -34.477188, -58.694738 ], "Escuela": "ES4", "Mesas": "10", "Barrio": "Pablo Nogues", "Field5": "Martin De la Arena", "FiscGral": "Horacio Randle", "Direccion": "MORSE 821", "Field12": "ful espert", "Field13": "ful espert" }, "geometry": null },
    { "type": "Feature", "properties": { "coordenadas": [ -34.487527, -58.702646 ], "Escuela": "ES5", "Mesas": "6", "Barrio": "Pablo Nogues", "Field5": "Martin De la Arena", "FiscGral": "Tony Campbell ", "Direccion": "CANGALLO 2975", "Field12": "full espert", "Field13": "full espert" }, "geometry": null },
    { "type": "Feature", "properties": { "coordenadas": [ -34.482194, -58.693519 ], "Escuela": "Inst. Nstra. Sra. De los Milagros", "Mesas": "6", "Barrio": "Pablo Nogues", "Field5": "Martin De la Arena", "FiscGral": "Marta Garcia", "Direccion": "CANGALLO 4055", "Field12": "full espert", "Field13": "full espert" }, "geometry": null },
    { "type": "Feature", "properties": { "coordenadas": [ -34.489607, -58.705943 ], "Escuela": "Instituto Jose Marmol", "Mesas": "7", "Barrio": "Pablo Nogues", "Field5": "Martin De la Arena", "FiscGral": "Cecilia Mayas ", "Field7": "Caro 1", "Direccion": "CHACABUCO 359", "Field12": "Doble en 6 mesas", "Field13": "Doble en 6 mesas" }, "geometry": null },
    { "type": "Feature", "properties": { "coordenadas": [ -34.491198, -58.713281 ], "Escuela": "Jardin de Infantes 926", "Mesas": "3", "Barrio": "Pablo Nogues", "Field5": "Martin De la Arena", "FiscGral": "Diego Forrester", "Direccion": "Juan Francisco Seguí 551", "Field12": "Full espert", "Field13": "Full espert" }, "geometry": null },
    { "type": "Feature", "properties": { "coordenadas": [ -34.500470, -58.692215 ], "Escuela": "Colegio San Pablo", "Mesas": "10", "Barrio": "Los Polvorines", "Field5": "Martin De la Arena", "FiscGral": "Matias Berruezo", "Field7": "Caro 1", "Direccion": "PERITO MORENO 2900", "Field12": "doble 5 mesas", "Field13": "doble 5 mesas" }, "geometry": null },
    { "type": "Feature", "properties": { "coordenadas": [ -34.498461, -58.692715 ], "Escuela": "EP 1", "Mesas": "12", "Barrio": "Los Polvorines", "Field5": "Quimicos", "Direccion": "25 DE MAYO 3098", "Field12": "doble 10 mesas", "Field13": "doble 10 mesas" }, "geometry": null },
    { "type": "Feature", "properties": { "coordenadas": [ -34.509984, -58.726836 ], "Escuela": "EP 11", "Mesas": "12", "Barrio": "Los Polvorines", "Field5": "Martin De la Arena", "FiscGral": "Hugo Valladares ", "Direccion": "BACACAY 141", "Field12": "Full espert", "Field13": "Full espert" }, "geometry": null },
    { "type": "Feature", "properties": { "coordenadas": [ -34.519962, -58.715377 ], "Escuela": "EP 13", "Mesas": "9", "Barrio": "Los Polvorines", "Field5": "Martin De la Arena", "FiscGral": "Hector Bajo", "Direccion": "COMODORO RIVADAVIA N°296", "Field12": "doble en 4 mesas", "Field13": "doble en 4 mesas" }, "geometry": null },
    { "type": "Feature", "properties": { "coordenadas": [ -34.511079, -58.710620 ], "Escuela": "EP 18", "Mesas": "10", "Barrio": "Los Polvorines", "Field5": "Caro", "FiscGral": "Enrique Balbiani", "Field7": "Caro 1", "Direccion": "M.BOEDO 1256", "Field12": "Full caro", "Field13": "Full caro" }, "geometry": null },
    { "type": "Feature", "properties": { "coordenadas": [ -34.507534, -58.698833 ], "Escuela": "EP 19", "Mesas": "9", "Barrio": "Los Polvorines", "Field5": "Martin De la Arena", "FiscGral": "Hilda Ancora", "Field7": "Caro 1", "Direccion": "PERITO MORENO 2048", "Field12": "doble caro y martin", "Field13": "doble caro y martin" }, "geometry": null },
    { "type": "Feature", "properties": { "coordenadas": [ -34.516089, -58.708914 ], "Escuela": "EP 23", "Mesas": "12", "Barrio": "Los Polvorines", "Field5": "Quimicos", "Field7": "Caro 1", "Direccion": "PERITO MORENO 1048", "Field12": "Doble en 6 mesas", "Field13": "Doble en 6 mesas" }, "geometry": null },
    { "type": "Feature", "properties": { "coordenadas": [ -34.505972, -58.693479 ], "Escuela": "EP 3", "Mesas": "12", "Barrio": "Los Polvorines", "Field5": "Caro", "Field6": "Delfina Pizzarro", "Direccion": "SUIPACHA 2895", "Field12": "Caro 5, Martin 7", "Field13": "Caro 5, Martin 7" }, "geometry": null },
    { "type": "Feature", "properties": { "coordenadas": [ -34.506193, -58.706213 ], "Escuela": "EP 34", "Mesas": "11", "Barrio": "Los Polvorines", "Field5": "Martin De la Arena", "FiscGral": "Hector Bajo", "Direccion": "GANDHI Y 9 DE JULIO N°4935", "Field12": "full espert", "Field13": "full espert" }, "geometry": null },
    { "type": "Feature", "properties": { "coordenadas": [ -34.506072, -58.712796 ], "Escuela": "EP 35", "Mesas": "11", "Barrio": "Los Polvorines", "Field5": "Martin De la Arena", "FiscGral": "José Martire", "Direccion": "CERRITO 1346", "Field12": "full espert", "Field13": "full espert" }, "geometry": null },
    { "type": "Feature", "properties": { "coordenadas": [ -34.501097, -58.709721 ], "Escuela": "EP 9", "Mesas": "11", "Barrio": "Los Polvorines", "Field5": "Martin De la Arena", "FiscGral": "Alfredo Casaubon", "Direccion": "EX COMBAT.DE MALVINAS 1700", "Field12": "full espert", "Field13": "full espert" }, "geometry": null },
    { "type": "Feature", "properties": { "coordenadas": [ -34.501807, -58.693603 ], "Escuela": "Inst. adventista los polvorines", "Mesas": "12", "Barrio": "Los Polvorines", "Field5": "Quimicos", "Direccion": "TALCAHUANO 3180", "Field12": "full espert", "Field13": "full espert" }, "geometry": null },
    { "type": "Feature", "properties": { "coordenadas": [ -34.501495, -58.698892 ], "Escuela": "Inst. Evangelico Luis Siegel", "Mesas": "12", "Barrio": "Los Polvorines", "Field5": "Martin De la Arena", "FiscGral": "Diego Christensen", "Direccion": "SUIPACHA 3522", "Field12": "doble en 6 mesas", "Field13": "doble en 6 mesas" }, "geometry": null },
    { "type": "Feature", "properties": { "coordenadas": [ -34.520304, -58.714688 ], "Escuela": "Instituo Gabriela Mistral", "Mesas": "7", "Barrio": "Los Polvorines", "Field5": "Martin De la Arena", "FiscGral": "Hugo Valladares ", "Direccion": "PEDRO MEDRANO 446", "Field12": "full espert", "Field13": "full espert" }, "geometry": null },
    { "type": "Feature", "properties": { "coordenadas": [ -34.506323, -58.707010 ], "Escuela": "Instituto la Sagrada Familia", "Mesas": "12", "Barrio": "Los Polvorines", "Field5": "Quimicos", "Direccion": "JUAN C.BARONI 1761", "Field12": "full espert", "Field13": "full espert" }, "geometry": null },
    { "type": "Feature", "properties": { "coordenadas": [ -34.479410, -58.772259 ], "Escuela": "EP2", "Mesas": "10", "Barrio": "Tortuguitas", "Field5": "Martin Richard", "FiscGral": "Martin Richard", "Direccion": "Pcia de Buenos Aires 1031", "Field12": "Full, 5 poderes", "Field13": "Full, 5 poderes" }, "geometry": null },
    { "type": "Feature", "properties": { "coordenadas": [ -34.464472, -58.740293 ], "Escuela": "EP21", "Mesas": "12", "Barrio": "Tortuguitas", "Field5": "Caro", "FiscGral": "Alberto Garcia", "Direccion": "SOLD.BAIGORRIA 3768", "Field12": "Caro 6, completa martin con 6", "Field13": "Caro 6, completa martin con 6" }, "geometry": null },
    { "type": "Feature", "properties": { "coordenadas": [ -34.487707, -58.754751 ], "Escuela": "EP28", "Mesas": "10", "Barrio": "Tortuguitas", "Field5": "Martin De la Arena", "FiscGral": "Santiago Daireaux ", "Direccion": "QUITO 300", "Field12": "Full, 5 poderes", "Field13": "Full, 5 poderes" }, "geometry": null },
    { "type": "Feature", "properties": { "coordenadas": [ -34.463948, -58.759221 ], "Escuela": "EP40", "Mesas": "8", "Barrio": "Tortuguitas", "Field5": "Braun", "FiscGral": "Tomas Perez Alati", "Field7": "TPA 1", "Direccion": "LOS CALDENES 1385", "Field12": "full, 4 poderes cambiemos", "Field13": "full, 4 poderes cambiemos" }, "geometry": null },
    { "type": "Feature", "properties": { "coordenadas": [ -34.475970, -58.783486 ], "Escuela": "EP41", "Mesas": "6", "Barrio": "Tortuguitas", "Field5": "Martin De la Arena", "FiscGral": "Juan Carlos Gelabert", "Direccion": "JUAN XXIII 4600", "Field12": "full espert", "Field13": "full espert" }, "geometry": null },
    { "type": "Feature", "properties": { "coordenadas": [ -34.472412, -58.753825 ], "Escuela": "EP8", "Mesas": "11", "Barrio": "Tortuguitas", "Field5": "Braun", "FiscGral": "Fernandez Pescuma", "Field7": "TPA 1", "Direccion": "CURA BROCHERO N°3697", "Field12": "doble en 6 mesas", "Field13": "doble en 6 mesas" }, "geometry": null },
    { "type": "Feature", "properties": { "coordenadas": [ -34.472047, -58.754516 ], "Escuela": "ES17", "Mesas": "9", "Barrio": "Tortuguitas", "Field5": "Martin De la Arena", "FiscGral": "Pablo Casaux", "Direccion": "MASCARDI NICOLAS 3799", "Field12": "full, 4 poderes cambiemos", "Field13": "full, 4 poderes cambiemos", "Field14": "ok" }, "geometry": null },
    { "type": "Feature", "properties": { "coordenadas": [ -34.467199, -58.735074 ], "Escuela": "ES3", "Mesas": "7", "Barrio": "Tortuguitas", "Field5": "Martin De la Arena", "FiscGral": "José Maria Rizzi", "Direccion": "NUÑEZ IGNACIO 3449", "Field12": "full, 4 poderes cambiemos", "Field13": "full, 4 poderes cambiemos", "Field14": "ok" }, "geometry": null },
    { "type": "Feature", "properties": { "coordenadas": [ -34.466676, -58.756405 ], "Escuela": "ES7", "Mesas": "10", "Barrio": "Tortuguitas", "Field5": "Martin De la Arena", "FiscGral": "Martin Garcia Laborde", "Field7": "Caro 1", "Direccion": "LAS ARAUCARIAS 1450", "Field12": "doble en 6 mesas", "Field13": "doble en 6 mesas" }, "geometry": null },
    { "type": "Feature", "properties": { "coordenadas": [ -34.502836, -58.676747 ], "Escuela": "Colegio Parroq. Rafael Torre", "Mesas": "8", "Barrio": "Villa de Mayo", "Field5": "Martin De la Arena", "FiscGral": "Sebastián Adaro", "Direccion": "ROSARIO 2130", "Field12": "full espert", "Field13": "full espert" }, "geometry": null },
    { "type": "Feature", "properties": { "coordenadas": [ -34.504733, -58.685343 ], "Escuela": "EP 12", "Mesas": "9", "Barrio": "Villa de Mayo", "Field5": "Martin De la Arena", "FiscGral": "Guillermo Shanonn", "Direccion": "COCHABAMBA 2445", "Field12": "full, 5 poderes", "Field13": "full, 5 poderes", "Field14": "ok" }, "geometry": null },
    { "type": "Feature", "properties": { "coordenadas": [ -34.491907, -58.670178 ], "Escuela": "EP 17", "Mesas": "10", "Barrio": "Villa de Mayo", "Field5": "Santiago Dondo", "FiscGral": "titin bosch", "Direccion": "LUNA PELAGIO 2400", "Field12": "Full, 5 poderes cambiemos", "Field13": "Full, 5 poderes cambiemos" }, "geometry": null },
    { "type": "Feature", "properties": { "coordenadas": [ -34.515453, -58.675261 ], "Escuela": "EP 22", "Mesas": "10", "Barrio": "Villa de Mayo", "Field5": "Alfonso PAMI", "Direccion": "PERON JUAN D. PDTE. TTE. 450", "Field12": "full espert", "Field13": "full espert" }, "geometry": null },
    { "type": "Feature", "properties": { "coordenadas": [ -34.487028, -58.670920 ], "Escuela": "EP 33", "Mesas": "8", "Barrio": "Villa de Mayo", "Field5": "Caro", "FiscGral": "Federico Bellece", "Field7": "Caro 1", "Direccion": "COLPAYO 2808", "Field12": "caro completa", "Field13": "caro completa" }, "geometry": null },
    { "type": "Feature", "properties": { "coordenadas": [ -34.497136, -58.677510 ], "Escuela": "EP 4", "Mesas": "10", "Barrio": "Villa de Mayo", "Field5": "Alfonso PAMI", "Direccion": "PUJOL JUAN 2435", "Field10": "40", "Field12": "full espert", "Field13": "full espert" }, "geometry": null },
    { "type": "Feature", "properties": { "coordenadas": [ -34.499660, -58.687618 ], "Escuela": "ES 1", "Mesas": "10", "Barrio": "Villa de Mayo", "Field5": "Alfonso PAMI", "Direccion": "GODOY CRUZ TOMAS 3300", "Field10": "15", "Field12": "full, 4 poderes cambiemos", "Field13": "full, 4 poderes cambiemos", "Field14": "ok" }, "geometry": null },
    { "type": "Feature", "properties": { "coordenadas": [ -34.508631, -58.670468 ], "Escuela": "ES 22", "Mesas": "10", "Barrio": "Villa de Mayo", "Field5": "Caro", "FiscGral": "federico sixto", "Field7": "Caro 1", "Direccion": "MALABIA JOSE SEVERO 3890", "Field12": "full caro", "Field13": "full caro" }, "geometry": null },
    { "type": "Feature", "properties": { "coordenadas": [ -34.514723, -58.673261 ], "Escuela": "ES 8", "Mesas": "6", "Barrio": "Villa de Mayo", "Field5": "Martin De la Arena", "FiscGral": "Agustin Socorro ", "Direccion": "ESTADO DE ISRAEL 2965", "Field12": "full, 3 cambiemos", "Field13": "full, 3 cambiemos", "Field14": "ok" }, "geometry": null },
    { "type": "Feature", "properties": { "coordenadas": [ -34.514135, -58.674394 ], "Escuela": "EST 2", "Mesas": "6", "Barrio": "Villa de Mayo", "Field5": "Martin De la Arena", "FiscGral": "Tomas Hunter", "Direccion": "RAWSON 2950", "Field12": "full, 4 poderes cambiemos", "Field13": "full, 4 poderes cambiemos", "Field14": "ok" }, "geometry": null },
    { "type": "Feature", "properties": { "coordenadas": [ -34.483012, -58.735767 ], "Escuela": "Escuela 17 de Agosto", "Field3": "11", "Barrio": "Tierras Altas", "Field5": "Braun", "FiscGral": "Lartirigoyen", "Direccion": "SUDAMERICA 520", "Field12": "doble en 6 mesas", "Field13": "doble en 6 mesas" }, "geometry": null },
    { "type": "Feature", "properties": { "coordenadas": [ -34.478292, -58.735232 ], "Escuela": "EP 16", "Mesas": "12", "Barrio": "Tierras Altas", "Field5": "Braun", "FiscGral": "Lartirigoyen", "Direccion": "PERU N°1286", "Field12": "doble en 6 mesas", "Field13": "doble en 6 mesas" }, "geometry": null },
    { "type": "Feature", "properties": { "coordenadas": [ -34.483397, -58.738172 ], "Escuela": "EP 30", "Mesas": "12", "Barrio": "Tierras Altas", "Field5": "Braun", "FiscGral": "Luis de Anchorena", "Direccion": "PASO DE LOS ANDES 2347", "Field12": "full, 4 poderes cambiemos", "Field13": "full, 4 poderes cambiemos", "Field14": "ok" }, "geometry": null },
    { "type": "Feature", "properties": { "coordenadas": [ -34.483600, -58.737954 ], "Escuela": "ES 23", "Mesas": "5", "Barrio": "Tierras Altas", "Field5": "Braun", "FiscGral": "Taboada", "Direccion": "PIEDRA BUENA LUIS 800", "Field12": "full espert", "Field13": "full espert" }, "geometry": null },
    { "type": "Feature", "properties": { "coordenadas": [ -34.473625, -58.741295 ], "Escuela": "Escuela Republica Argentina", "Mesas": "4", "Barrio": "Tierras Altas", "Field5": "Caro", "FiscGral": "Federico Bellece", "Field7": "Caro 1", "Direccion": "CBTE.DE SAN LORENZO 3250", "Field12": "full caro", "Field13": "full caro" }, "geometry": null },
    { "type": "Feature", "properties": { "coordenadas": [ -34.475711, -58.724671 ], "Escuela": "Instituto Malvinas Argentinas", "Mesas": "5", "Barrio": "Tierras Altas", "Field5": "Braun", "FiscGral": "Lartirigoyen", "Direccion": "ESTEBAN GOMEZ 1952", "Field12": "Full espert", "Field13": "Full espert" }, "geometry": null },
    { "type": "Feature", "properties": { "coordenadas": [ -34.466499, -58.733742 ], "Escuela": "Instituto Modelo Tortuguitas", "Mesas": "7", "Barrio": "Tierras Altas", "Field5": "Martin De la Arena", "FiscGral": "Lidia Gómez Morel", "Direccion": "COLOMBIA 1834 S\/N", "Field12": "full, 4 poderes cambiemos", "Field13": "full, 4 poderes cambiemos", "Field14": "ok" }, "geometry": null },
    { "type": "Feature", "properties": { "coordenadas": [ -34.481172, -58.745842 ], "Escuela": "Jardin de Infantes 907", "Mesas": "3", "Barrio": "Tierras Altas", "Field5": "Caro", "Direccion": "URUGUAY 510", "Field12": "full, 3 poderes", "Field13": "full, 3 poderes", "Field14": "ok" }, "geometry": null }
    ]
    }
    